<svg xmlns="http://www.w3.org/2000/svg" id="Layer_1" version="1" viewBox="0 0 125 115">
  <style>
    .st0,.st1{stroke:#c4caeb;stroke-miterlimit:10}.st1{fill:#fff}
  </style>
  <path d="M37 93l-1-1v-2l1-1 3-3h3l2 1 1 1c1 3 1 6-1 7l-4 2-3-2-1-2zm5 3l2-1 2-4c0-2-2-4-4-3h-1 1v1h-1 1-4 2l2 1h-1-1 1v1h-2l1 1h-1l1 1h-1 1l-1 1-1-1 3 1h-2l2 1h1v1zm-2-6h-2 2zm-1 3h-2 2zm56-37l-5 2-18 7-5 1-4 1-5 2-8 1h-9-2l-6-1h-4l-1 1h-2l-4 1-3-1-4-3-2-2-1-1-3-1h1l3 1 2 1 3 2 2 1h3l5-1 1-1 4-4 3-3 2-2 3-2 8-3 9-4 5-2h2l9-2 8-2h10l7 1h1l4 1h3l2 1c1 0 1 0 0 0l-4 4-4 3-4 3-2 1zM49 67l6 2v-1l-4-1h1l2 1h3l-4-2 7 2-4-2 3 1 2 1 1-1-4-1 4 1h1l-3-1h4l-2-1 2 1h3l-4-1v-1c2 1 4 2 6 1l-4-1 4 1h2l-3-2 5 1-4-1v-1l4 2v-1l-3-1 5 1-4-2 1 1 3 1h1v-1l-3-1c2 0 4 2 6 1l-4-1h1l2 1h2v-1l-3-1 3 1h2l-4-1h5l-4-1h1l4 1h1l-3-2 3 1h2l-4-2 3 1h3l-4-1h1l2 1h2l-4-2h1l3 1h2l-4-1h1l2 1 2-1-3-1h1l3 1-3-2 3 1h2l-3-1h4l-2-1 3 1-3-1h4l-2-1h4l-3-1h4-2l3-1h-2 2l-1-1h2-1 1l1-1 2-2-1 1-3 1a47 47 0 0 1-9 3l-6 2h-2l-4 1h-3l-2 1-3 1-3 1-5 1-6 2-6 2-3 1-5 2-7 1h-1l-3 1h-1l2 1 3 1v-1l2 1h2l-2-1h1l3 1h1l-2-1c1 1 3 2 5 1l-3-1h4l-2-1c2 1 3 2 5 1l-4-1zm33-22l-2-1h-2l2 1-3-1h-1l3 1c0 1 0 1 0 0l-3-1h-1l1 1h1-1l-2-1h-1l2 2h-1l-1-1h-2l2 1-2-1h-1l2 1h-1c-1 0-2-2-3-1l2 1h-1-1l-2-1v1l2 1c-1-1-3-2-4-1h1l1 1-2-1h-1l1 1v1l-2-1h-1l2 1-2-1h-1l2 1v1l-1-1h-2-1l2 1h-1-2l1 1-2-1 1 1-2-1h-1l2 1h-3l1 1h-1-2l1 1-1-1h-1v1h1-3 1l1 1h-1v-1h-2l2 1h-1-2l1 1h-1-2 2-3l1 1h-3l2 1h-3 1v1l-1-1h-2l2 1h-1-1 1l-1 1h-1 0l-1 1h1-1l-1 1h1-1l-1 1h-1l1 1h-1v1h-1 1l-1 1 3-1 4-2 6-3 4-2 4-1 8-3 5-1 7-2 5-1 8-1 4-1 8-1 5-1h2l-6-1v1l-2-1h1v1c-1-1-2-2-3-1h1-1l-1-1 1 1-4-1 2 1v1l-3-2v1l1 1-1-1h-2l2 1c-2-1-3-2-4-1l2 1-3-1h-2l2 1-2-1h-2l2 1-3-1 2 2zM54 61l1-1v-2l-2-2-5 2-1 2 2 2 1 1 4-2zm18-10h-2l-5 2v1l1 2 2 1 3-1c2-1 2-2 2-3l-1-2zm10 2h4l3-1v-3l-2-1-4 1h-1v2 2zm-43 9v2c0 1 1 2 2 1l4-1 2-2-1-2h-1l-6 2zm26-4l-1-2h-4l-2 1-1 2v1h-1v1l9-3zm33-9v-2h-1-5l-1 1 1 1-1 1h2l5-1zm-17 5l-1-2-1-1-3 1-1 2v1l6-1zM25 70v-1h-6l1 1h1l4-1zm9-1l-2-1h-2v1h4zm4-3l-4-1h-1l5 1zm-21 1h-2l-1-2-1-1 4 4zm83-21l-1 1h4l-3-1zm4 1l-3-1 3 1zM36 64l2 1-2-1zm42-14h3-3zM37 69l-3-1 3 1zm37-19h2-2zM30 67l2-1-2 1zm50-17h1-1zM38 64h-1 1zm-3 2h-3 3zm39-11l-1 1 1-1zm-13 0v-1h-2l2 1zM39 70v-1h-2l2 1zm37-20h1-1zm26-4h2-2z" class="st0"/>
  <path d="M49 67l4 2-5-1h1l1 1-4-1 3 1c-2 1-3 0-5-1v1h2v1l-1-1-3-1-1 1h0l-2-1v1l-3-1h-2v-1h5l7-2 5-1 4-1 6-2 5-2 5-2 3-1h4l1-1h3l4-1 2-1 6-1 5-1 5-2 2-2 2-1v1l-2 2h-2l1 1h-2 1-2l1 1h-2l1 1h-3l2 1-3-1 2 1h-4l3 1h-4l3 1h-3l-2-1 3 2h-2l-2-1 3 1h-1l-3-1h-1l3 2h-1l-3-1 3 1v1l-2-1-3-1h-1l4 2h-2l-2-1h-1l4 2h-3l-2-1h-1l4 1h-2l-3-1 3 2h-1l-4-1h-1l4 2h-2l-2-1h-1l4 1h-2l-3-1 3 2h-2l-2-1h-1l4 1c-2 1-4 0-6-1v1l4 1h-1l-4-1 4 2-5-2v1l2 1-4-1 4 1c-2 1-3 0-5-1v1l3 1h-2l-3-1h-1l4 2-6-1 4 1h-5v-1 1l3 1-5-1 3 1h-1l-4-1h-1l5 2h-4l-2-1c0-1 0-1 0 0l3 1c-2 1-4-1-6-1l3 2-2-1-2-1h-1l4 2h-1l-5-1v-1zm33-22l-2-2h1l2 2h1v-1l-2-1h1l2 1h1l-2-1h2l2 1c0 1 0 0 0 0l-2-1 4 1-2-1h2l1 1v-1h-1l3 1-2-1c2-1 3 0 4 1l-1-1h1l1 1-1-1 3 1-1-1 2 1v-1l6 2h-6l-8 1-5 1-8 1-4 1-7 2-6 2-11 4-5 2-5 2-4 2-4 2v-1h1l-1-1h1l1-1 1-1h1v-1h2l-1-1h2l-1-1h2l-2-1h1l1 1h1v-1h-2 3l-2-1h3l-1-1h3-1 2l-1-1h2s0 1 0 0v-1h2v1l-1-1h2l-1-1h2-1v1h2l-1-1h-1 3l-1-1 2 1h1l-2-1h3l-1-1h1l1 1h1l-2-1h3l-2-1 3 1h1l-2-1h3l-2-1h2l1 1h1v-1l-2-1h1l1 1h1l-2-1h1l2 1h1v-1h-2c1-1 2 0 3 1v-1l-1-1h1l2 1-2-1c2-1 3 0 4 1l-2-1v-1h1l2 2h1l-1-1-1-1h1l2 1h1l-2-1h1l2 1v-1l-1-1 3 2h1l-3-2h1l2 1h1l-2-1h1l2 1z" class="st1"/>
  <path d="M54 61l-4 2-1-1-2-2 1-2 5-2 2 2v2l-1 1zm18-10l1 2c0 1 0 2-2 3l-3 1-2-1-1-2 1-2 4-1h2zm10 2v-4h1l4-1 2 1 1 3h-1l-3 1-3 1-1-1zm-43 9l6-2h1l1 2-2 2-4 1-2-1v-2zm26-4l-9 3v-1h1v-1l1-2 2-1h4l1 2zm33-9l-5 2h-1l-1-1 1-1-1-1 1-1h6v2zm-17 5l-5 1h-1v-2l1-1 3-1 2 1v2zM25 70h-4-1l-1-1h6v1zm9-1h-4v-1h2l2 1zm4-3l-5-1h1l4 1zm-21 1c-2 0-3-1-4-3l1 1 1 2 2 1zm83-21l3 1h-3v-1zm4 1l-3-1 3 1zM36 64l2 1-2-1zm42-14h3-3zM37 69l-3-1 3 1zm37-19h2-2zM30 67l2-1-2 1zm50-17h0zM38 64h-1 1zm-3 2h-3 3zm39-11l-1 1 1-1zm-13 0l-2-1h2v1zM39 70l-2-1h2zm37-20h1-1zm26-4h2-2zM18 90c1 0 1 0 0 0l-1-1h1l-2-2 1 1h1l-1-1h1l-1-1 1 1v-1h1v-1l1 1h1l-2-2h-2l2-1 2 2-1-1 2 1-1-2 1 1c2 1 3 2 2 5l-4 2-2-1zm51 16h-1l-2-1 2 1z" class="st1"/>
  <path d="M40 114c-2 0-3-2-3-4l2-3v-1c1-1 2-2 3-1 2 0 3 0 5 2l1 2c0 2-1 4-3 5h-5zm0-5v-2 2l2 2-2-2 1 2h-1v1h0-1v-1h-1 1l1 2h1-1l-1-1v1l2 1h3c2-2 3-3 3-6h-1l-1-2v2l-2-3 1 3-2-3 1 1v2-1c-1 0-1 0 0 0v1l-1-1v1l-1-1 1 2-1-1-1 1zm0 1l-1-2h-1l1 1v1zm0-4l1 1-1-1z" class="st0"/>
  <path d="M40 109l1-1v1l1 1v-1l-1-1-1-1 2 2-1-1v-1l1 2v-1-1l1 2v-1l-1-1v-1l2 2-1-2 2 3-1-2 2 2c1 2 0 4-2 5l-3 1-2-2h-1l2 1v-1l-2-1v-1l1 1 1 1v-1h-1v-1l1 1h1v-1l-1-1 1 1c1-1 0-2-1-2z" class="st1"/>
  <path d="M40 110l-1-1v-1l1 2h-1zm0-1v-2 2zm0-3l1 1-1-1z" class="st1"/>
  <path d="M0 56v-1l2-2 3-2 1 1 2 2 1 2c-1 2-2 3-4 3H3l-3-2v-1zm3 1l-2-2v1l2 1h1-1l2 1H3h2v1l2-2 1-1v-1l-2-3H5 4l1 1-1-1v1l-1-1v1l1 1v-1H3l1 2-1-1 1 1H3l1 1-2-1 3 2H4l-1-1zm-2 0l2 1-2-1zm1-3l1 1-1-1zm1 4H1h2z" class="st0"/>
  <path d="M3 57h1l-2-2 2 1-1-2 1 1-1-1 1 1v-2 1l-1-1v-1l1 1v-1l1 1v-1H4h2l2 3v1l-1 1-2 2-1-1H3h2l-2-1h1-1zM3 57l-1-1-1-1 2 2zm-2 0l2 1-2-1zm1-3l1 1-1-1zm1 4H1h2z" class="st1"/>
  <path d="M74 72l2 1v3l-1 3-2 1h-3l-2-2-1-3 1-2c0-2 1-2 3-2h3zm-1 1l-2-1 2 1-1 1-1-2 1 1v1l-1-1 1 2-1-1 2 3-2-1-1-1 2 2h-2l3 1h-3l-1-1 1 1 2 1h1-3 4l1-1 1-2v-2l-3-2 1 1h-1zm-2 1l-2-2 2 2zm-3-1v1l1 1-1-2zm2 6l2 1-2-1zm0-5l-1-1 1 1z" class="st0"/>
  <path d="M73 73v-1l3 2v2l-1 2-1 1-2 1-2-1h2l-2-1-1-1 1 1h2v1-1l-2-1h2l-2-2 1 1 2 1-3-3 1 1v1h1v-1l-1-2 1 1-1-1v-1l1 2 1-1zM71 74l-2-2 2 2zm-3-1l1 2-1-1zm2 6l2 1-2-1zm0-5l-1-1 1 1zm3-1l-2-1 2 1z" class="st1"/>
  <path d="M98 26l1-3 4-2 2-1 2 2c2 1 2 3 1 5l-2 2-2 1c-2 0-4 0-5-2l-1-2zm4-4l1 2-1-1v1l1 1-2-1 2 2-2-1 2 1h-2l1 1v1-1l-2-1v1l1 1h2l-3-1v1l3 1h2l2-2 1-2-1-3-1-1v1l-2-1 2 1-3-1 2 1v1l-2-1 1 1h-2zm-2 5l-1-1 1 1zm0-3l1 1-1-1z" class="st0"/>
  <path d="M102 23h2l-1-1 1 1 1-1-2-1 2 1-1-1 2 1v-1l1 1 1 3-1 2-3 2h-2l-2-1 3 1v-1h-2l-1-1 2 1v-1l-2-1 2 1-1-1h1l-1-2 1 1h1l-1-1-1-1 2 1h-1v-2zM100 27l-1-1 1 1zm0-3l1 1-1-1z" class="st1"/>
  <g>
    <path d="M91 74l-4 3-4-1v-6l1-1 3-1 4 2v4zm-6 0l-1-1 1 1v1l-1-1h-1l2 1 3 1c2-1 3-2 3-4v-2l-2-2v2l-1-2 1 1h-1l-1-1h-1l2 2-2-2 1 2-2-1 2 2h-1l-1-1v1l-1-1h1l1 1v1l-1-1v1h1v1l-2-1 1 1zm-2-3l1 1-1-1z" class="st0"/>
    <path d="M85 74l-1-2 1 1h1l-1-1-1-1 1 1h1l-1-1-1-1 1 1v-1l1 1h1l-2-2 1 2 1-1-1-1 1 1h1l-2-2 1 1 1 1v-1l-1-1 2 2v-1l2 2v1l-4 4h-2v-1h-1l-1-1 1 1h1v-1l-1-1 1 1zM83 71l1 1-1-1z" class="st1"/>
  </g>
  <g>
    <path d="M30 75l1 1 3 1 3 1h4l3 2 6 2 6 2h32l8 2 6 2 3 1v-3l2 3 3 2 1 1 2 1 6 4 3 4 2 1v1h-1l-4-4-4-3-4-1h-1l-1 1-2 1-3 2h-2l2-2h-2l-4 1-4 1h-6l-3 1H73l-4-1H54l-6-1-4-1-7-3-3-3-2-3-2-4v-5-4zm71 19l-1-1-1-1 3 1 2 1-1-1h-1v-1l2 1h1l-5-4 1 1-2-1h1l-2-1v1l-2-1 1 1-2-1 1 1-4-2 3 1v-1l1 1v-1l3 1 2 1 2 1h2-1l-6-3-3-1H70v1h-9l-2-1h-4 1-3 1l1 1 1 1-1-1v1l-2-2 2 2v1l-1-1-1-1-2-2h-1l-4-1-9-3 1 1-2-2 1 1v2l-2-3v1l2 2h-1l-2-3-1-1 1 1 2 3v1l-4-5 1 2 3 3 1 1h-1l-1-1 3 4h-1l1 1v-1l1 3 1-1 1 2-1-2 1 1c1-1 0-1-1-1l1-1 2 3-1-2-1-1v-1l3 4v-1l-3-3 5 5v-1l-2-2-3-3h1l3 4 3 3v-1l2 2-1-2h1-1l2 2h1l-2-2 1 1 1 1h1l-3-3 4 2 1 2c0-1 0-2-2-3l-1-1 5 3v-1l2 2-1-1-2-2h-1 1l3 2 1 1-1-1-1-1-1-1 2 2v-1l1 1h1v-1h-1l2 1v-1l2 1 2 1-2-2 2 2-2-2 3 1s-1 0 0 0l-4-3 6 4-2-2h1l2 2v-1l-2-1 3 1v1h2l-2-2 3 2-1-1-2-1h2l-1-1 4 2h-1l-2-2v-1l4 3-1-1-1-1-1-1-1-1c1 1 2 3 4 3l3 2 2 1-1-1-2-2 1 1h2l1 1h-1l-1-1v-1l3 2-2-2 2 1h1l2 1-2-1-1-1-1-1 3 2 2 1v-1h-1l-1-1-3-1v-1h1-1l-1-1c2 2 5 2 7 3l1 1-1-1v-1l3 2-1-1 2 1v-1l-2-1 3 2-1-1 2 2v-1l-1-1-2-2 3 2v1h1l-3-3 2 1h2l1 1-1-1h1l2 1v-1l1 1v-1c-1 0 0 0 0 0l1 1h-1 2-2c1 0 0 0 0 0zm-1 1h-1l-2 1h-2l-5 1-4 1H72l-7-1h-4-1l-2-1v1h-1v1l-1-1h-7l-1-1h-1l-1-1-1-1 1 1h-2l-3-1-6-5-2-2-1-3-1-2v-1l-1-2v2l1 3 1 3a18 18 0 0 0 10 9l8 2h19l4 1h12l6-1h2l4-1 4-1h2l-1-1v1l-1-1-2-1 1 1zm9-1l5 1 4 2-6-3-2-1v1h-1v-1-2l-1-1-1-1h-1l1 2 1 1h-3l1 1c1 0 1 0 0 0l-1 2v2l4-3zM31 78h-1l1 1 1 1 2 3 1 1-1-1h1l-5-5zm18 6v-1l-1-1c-1 1 0 2 1 2zm-2 9l2 3-2-3zm-7-14h-1v1l1 1v-1-1zm19 7l-2-2 2 2zm-15 8l-2-3 2 3zm46 2l-3-1 2 1zm7-1l-2-2 2 2zm-54-4l2 3-2-3zm8 3l2 2-2-2zm25 3l-2-2 2 2zm16-1l-2-2 2 2zm-14 1l-2-2 2 2zm-28-3l2 2-2-2zm-5-1v-1l-1-1 1 2zm16 2l-1 1h2l-1-1zm-8 0l1 1-1-1zm10 1l-2-1h1-1l2 1zm33 0v-1l-2-1 2 2zm-50-4l1 3-1-2v-1zm22 4l-1-1 1 1zM36 86l1 2v-1l-1-1zm20 9l1 1-1-1zm3 0c0 2 0 2 1 1l-1-1zm8 2l-1-2 1 2zM39 80h-2 2zm33 5l2 1-2-1zm-4 10l2 1-2-1zm-26-1l-1-2 2 2zm37 3l-2-2 2 2zM55 85l-2-1 2 1zm-21 0l-1-1 1 1zm5 5l1 2-1-2zm49 6h-1 1zm-5-1v1l1 1h1l-2-2zm37 5v-1l-1-1 1 2zm-38-4l2 1-2-1zM50 83l2 1-2-1zm35 13l-1-1 1 1zm9 0h1-1zm-31 0l1 1-1-1zm28-11h-2 2zm-27 1h1-1zm33 8l1 1-1-1z" class="st0"/>
    <path d="M100 93v1l-1-1v1l-2-1v-1h-2-1l3 1 1 1-2-1h-1l-2-1-1-1 3 3h-1l-3-2 2 2 1 1-1-1v1l-2-2 1 1h-1v1l-2-2h-1l2 2-2-1c-2-1-5-1-6-3v1h1-1v1l3 1 1 1h1v1l-2-1-3-2 1 1 1 1h-1l-1-1 2 2-4-2v1h-1l-1-1 3 2v1l-1-1-4-2c-2 0-2-2-4-3l1 1 1 1 1 1 1 1-4-3v1l3 2-4-2 1 1h-1 1l1 2-3-2 2 2-2-1h1l-3-1 2 1-2-1h-1l2 1-6-3 3 2v1l-3-2v1l3 1v1l-3-2 2 2-2-1-2-1v1l-1-1v1l-2-1h1v1l-3-2 1 1 1 1-3-2v-1l-2-3-1-1v1l2 2 1 2 2 2 1 1-2-2v1l-4-4v1h1l-2-1 1 2h1l2 2-2-1-3-2 2 2-1-1-2-1 2 2v1l-2-2-1-1 1 2-1-2v1l-3-2-4-4 3 3 2 2v1l-5-6h-1l1 1 2 2v1l-3-3 1 2h1v2l-2-3 1 2-2-1 1 2-1-2v1l-2-3v1l-1-2 1 1-3-4 2 1-1-1-2-3-2-2 5 5-2-3 2 2v-2l-1-1 2 2-1-1 9 3h-2l1 1v-1l2 1-1-1 4 1h1l2 2 1 1v0l-1-1 2 1h1l-1-1-1-1h-1 6l1 1h14l4-1h17l2 1c3 0 5 1 7 3h1-2l-2-1-3-1-2-1v1l-1-1-1 1-2-1 3 2v-1l2 1-1-1 2 1-1-1 2 2v-1l2 1-1-1 5 4h-1l-3-1 1 1h-1l-2-1 2 1zm-56-7v-1l2 1v-1c-1 0-2 0-3-2v1l1 2-1-2h-1 1l1 2h0zm40 4v-1l-1-1 2 1-3-1c0-1 0 0 0 0l-1-1v1l2 1 1 1zm-28 4l-2-2-2-2 4 4zm-1-3v-1l-3-3 3 4zm26-3v1l3 2-3-3zm-16 1l-2-1 2 2v-1h-1 1zm-21 0l-3-3 3 3zm38 1l3 2-3-2zm-18 0h-1l4 3-3-3zm-2 3l1 1 1 1h1l-3-2zm-18-6l-2-2 2 2zm28 3l3 2-3-2zm2 1l-2-3v1l2 2zm-11-2l2 2-2-2zm-8-2l2 1-2-1zm20 3l-3-2 3 2zm10-2l-2-1 2 1zm-12 0l2 1-2-1zm-9 0h2-2zm21 0l-1-1 1 1zm-9 0l-1-1v1h1z" class="st1"/>
    <path d="M100 95l-1-1 3 1v0l1 1h-2l-4 1-3 1h-2l-6 1h-8l-4-1H51l-5-1-3-2c-2 0-5-1-6-3l-4-5-2-3-1-3v-2l1 2 1 1a9 9 0 0 0 2 5l1 2 3 2 3 3 3 1h2l-1-1v-1l1 2h1l1 1h1l3 1h2l2-1v1h2v-1l2 1h12l6 1h3l6-1h7l2-1h2l1-1h1zm9-1l-4 3v-3l1-1v-1h-1 2v-1l-1-2h1v1l2 1v2l1 1v-1l2 1 6 3-4-2-5-1z" class="st1"/>
    <path d="M31 78l4 5h-1 1v1l-1-1-2-3-1-1v-1zm18 6l-1-2 1 1v1zm-12-1l-3-3-1-1 1 1 3 3zm10 10l2 3-2-3zm-7-14v2l-1-1v-1h1zm19 7c-2 0-2 0-2-2l2 2zm-15 8l-2-3 2 3zm46 2l-3-1 2 1zm7-1l-2-2 2 2zm-54-4l2 3-2-3zm8 3l2 2-2-2zm25 3l-2-2 2 2z" class="st1"/>
    <path d="M46 84l1 1-1-1v1l-1-1h1z" class="st0"/>
    <path d="M92 96l-2-1v-1l2 2zm-14 1l-2-2 2 2zm-28-3l2 2-2-2zm-5-1l-1-2 1 1v1zm16 2l1 1-1 1v-1h-1v-1zm-8 0l1 1-1-1zm10 1h-2v-1l1 1v-1h-1l2 1zm38-2l-1-1 1 1z" class="st1"/>
    <path d="M53 93l-2-2 2 2z" class="st0"/>
    <path d="M96 96l-2-2 2 1v1zm6-3h1l1 1-2-1zm-17 2l1 1-1-1zm-39-3v1l1 2-1-3zm22 4l-1-1 1 1zM37 86l1 1v1l-1-2zm20 9l1 1-1-1zm3 0l1 1c-1 1-1 1-1-1zm8 2l-1-2 1 2zM39 80h-2v-1l2 1zm33 5l2 1-2-1zm-4 10l2 1-2-1zm-26-1l-1-2 2 2zm37 3l-2-2 2 2zM55 85l-2-1 3 1h-1zm-21 0l-1-1 1 1zm5 5l1 2-1-2zm49 6h-1 1zm13-2l1-1 1 1h-2zm-18 1l2 2h-1l-1-1v-1zm37 5l-1-2 1 1v1zm-38-4l2 1-2-1zM50 83l2 1-2-1zm35 13l-1-1 1 1zm-26-1l1 1-1-1zm35 1h1-1zm-31 0l1 1-1-1zm18-1h1v1l-1-1zm10-10h-2 2zm-27 1h1-1zm33 8l1 1-1-1z" class="st1"/>
    <path d="M84 90l-1-1-2-1v-1h1l3 1h-2l1 1zm-28 3l-2-2-2-2v-1l1 1 3 3v1zm0 1l-4-4 2 2 2 2zm-1-3l-3-4 3 3v1zm-10-5l-2-2v-1c1 2 2 2 3 2v1l-2-1 1 1zm-1 0h0l-2-2h1l1 2zm37 2l3 3-3-2v-1zm-16 1h-1 1v1l-2-2 2 1zm-21 0l-3-3h1l3 3h-1zm38 1l2 2-3-2h1zm-18 0l3 3-4-3h1zm-2 3l3 2h-1l-1-1-1-1zm-18-6l-2-2 2 2zm28 3l3 2-3-2zm2 1l-2-2 2 2zm-11-2l2 2-2-2zm-8-2l2 1-2-1zm20 3l-3-2 3 2zm10-2l-2-1 2 1zm12 5l-3-1h1l2 1zm-24-5l3 1h-1l-2-1h1zm-9 0h2-2zm22 0l-2-1 2 1zm-10 0h-1 1z" class="st0"/>
  </g>
</svg>